{
   "type": "mysql",
   "host": "trigarante2020-1.cypym5wo7yt3.us-east-1.rds.amazonaws.com",
   "port": 3306,
   "username": "servici1",
   "password": "rdsAdmin*tiv2",
   "database": "trigarante2020",
   "timezone": "-05:00",
   "charset": "utf8mb4",
   "collation": "utf8mb4_unicode_ci",
   "entities": [
      "src/entity/**/*.ts"
   ],
   "subscribers": [
      "src/subscriber/**/*.ts"
   ],
   "cli": {
      "entitiesDir": "src/entity",
      "migrationsDir": "src/migration",
      "subscribersDir": "src/subscriber"
   }
}
